Technical Analysis Update: PAH Exposure Modeling Sensitivity and Primary Model
…
time12 |>
  select(contrast, estimate, SE, df, t.ratio, p.value, significant)

# A tibble: 1 × 7
  contrast                      estimate    SE    df t.ratio p.value significant
  <chr>                            <dbl> <dbl> <dbl>   <dbl>   <dbl> <lgl>      
1 (Donning/Firefighting) - Dof…   -0.455 0.106   381   -4.29 2.27e-5 TRUE       

7.6.3 Sampling location contrasts (exploratory)

loc12 |>
  select(contrast, estimate, SE, df, t.ratio, p.value, significant) |>
  arrange(p.value)

# A tibble: 66 × 7
   contrast          estimate     SE    df t.ratio  p.value significant
   <chr>                <dbl>  <dbl> <dbl>   <dbl>    <dbl> <lgl>      
 1 Back - Sock          0.782 0.0429   381   18.2  0        TRUE       
 2 Chest - Sock         1.35  0.0974   381   13.8  0        TRUE       
 3 Finger - Sock        1.24  0.156    381    7.92 0        TRUE       
 4 Lower Pant - Sock    0.851 0.0918   381    9.27 0        TRUE       
 5 Palm - Pant          0.723 0.0813   381    8.90 0        TRUE       
 6 Palm - Sock          1.38  0.0853   381   16.2  0        TRUE       
 7 Pant - Sock          0.656 0.0280   381   23.4  0        TRUE       
 8 Sleeve - Sock        0.887 0.0393   381   22.6  0        TRUE       
 9 Pant - Sleeve       -0.231 0.0303   381   -7.63 6.49e-13 TRUE       
10 Chest - Pant         0.689 0.0939   381    7.34 7.47e-11 TRUE       
# ℹ 56 more rows
…
